%YAML 1.1
%TAG !u! tag:unity3d.com,2011:
--- !u!114 &11400000
MonoBehaviour:
  m_ObjectHideFlags: 0
  m_CorrespondingSourceObject: {fileID: 0}
  m_PrefabInstance: {fileID: 0}
  m_PrefabAsset: {fileID: 0}
  m_GameObject: {fileID: 0}
  m_Enabled: 1
  m_EditorHideFlags: 0
  m_Script: {fileID: 11500000, guid: 827e0ca428c9a5e4aaa8b54b5e4f7d3b, type: 3}
  m_Name: Apple Contract _ Hammer 15
  m_EditorClassIdentifier: 
  UpdatedFromServer: 1
  UpdatedOn: -8585592073129129783
  contract: {fileID: 0}
  data:
    name: Hammer
    description: Hammer v-929
    currentSupply: 1
    fungible: 0
    burnable: 1
    externalUrl: https://bitbucket.org/rabbi062/nft-project/raw/1a641e6d7c0b86eff78873fcabdeb2528239d9d6/Assets/GUI%20PRO%20Kit%20-%20Fantasy%20RPG/ResourcesData/Sprites/Component/Icon_EquipmentIcons_(Original)/equip_hammer_4.png
    image: https://bitbucket.org/rabbi062/nft-project/raw/1a641e6d7c0b86eff78873fcabdeb2528239d9d6/Assets/GUI%20PRO%20Kit%20-%20Fantasy%20RPG/ResourcesData/Sprites/Component/Icon_EquipmentIcons_(Original)/equip_hammer_4.png
    animationUrls: []
    attributes:
    - name: Farm Power
      type: 0
      value: 52
      maxValue: 100
    - name: Level
      type: 0
      value: 94
      maxValue: 100
    - name: Price
      type: 0
      value: 2
      maxValue: 0
    contractAddress: 
    id: 40
    confirmed: 1
    rawData: 
