%YAML 1.1
%TAG !u! tag:unity3d.com,2011:
--- !u!114 &11400000
MonoBehaviour:
  m_ObjectHideFlags: 0
  m_CorrespondingSourceObject: {fileID: 0}
  m_PrefabInstance: {fileID: 0}
  m_PrefabAsset: {fileID: 0}
  m_GameObject: {fileID: 0}
  m_Enabled: 1
  m_EditorHideFlags: 0
  m_Script: {fileID: 11500000, guid: 827e0ca428c9a5e4aaa8b54b5e4f7d3b, type: 3}
  m_Name: Apple Contract _ Axe  8
  m_EditorClassIdentifier: 
  UpdatedFromServer: 1
  UpdatedOn: -8585592073121905382
  contract: {fileID: 0}
  data:
    name: 'Axe '
    description: Axe v-992
    currentSupply: 0
    fungible: 0
    burnable: 1
    externalUrl: https://bitbucket.org/rabbi062/nft-project/raw/1a641e6d7c0b86eff78873fcabdeb2528239d9d6/Assets/GUI%20PRO%20Kit%20-%20Fantasy%20RPG/ResourcesData/Sprites/Component/Icon_EquipmentIcons_(Original)/equip_axe_1.png
    image: https://bitbucket.org/rabbi062/nft-project/raw/1a641e6d7c0b86eff78873fcabdeb2528239d9d6/Assets/GUI%20PRO%20Kit%20-%20Fantasy%20RPG/ResourcesData/Sprites/Component/Icon_EquipmentIcons_(Original)/equip_axe_1.png
    animationUrls: []
    attributes: []
    contractAddress: 
    id: 49
    confirmed: 0
    rawData: 
