%YAML 1.1
%TAG !u! tag:unity3d.com,2011:
--- !u!114 &11400000
MonoBehaviour:
  m_ObjectHideFlags: 0
  m_CorrespondingSourceObject: {fileID: 0}
  m_PrefabInstance: {fileID: 0}
  m_PrefabAsset: {fileID: 0}
  m_GameObject: {fileID: 0}
  m_Enabled: 1
  m_EditorHideFlags: 0
  m_Script: {fileID: 11500000, guid: 827e0ca428c9a5e4aaa8b54b5e4f7d3b, type: 3}
  m_Name: Apple Contract _ Hammer 44
  m_EditorClassIdentifier: 
  UpdatedFromServer: 1
  UpdatedOn: -8585592072857395355
  contract: {fileID: 0}
  data:
    name: Hammer
    description: Hammer v-736
    currentSupply: 1
    fungible: 0
    burnable: 1
    externalUrl: https://static.wikia.nocookie.net/parody/images/4/42/74915084_10162764640400387_6139958579186106368_o.jpg
    image: https://static.wikia.nocookie.net/parody/images/4/42/74915084_10162764640400387_6139958579186106368_o.jpg
    animationUrls: []
    attributes:
    - name: Farm Power
      type: 0
      value: 59
      maxValue: 100
    - name: Level
      type: 0
      value: 86
      maxValue: 100
    - name: Price
      type: 0
      value: 2
      maxValue: 0
    contractAddress: 
    id: 146
    confirmed: 1
    rawData: 
