%YAML 1.1
%TAG !u! tag:unity3d.com,2011:
--- !u!114 &11400000
MonoBehaviour:
  m_ObjectHideFlags: 0
  m_CorrespondingSourceObject: {fileID: 0}
  m_PrefabInstance: {fileID: 0}
  m_PrefabAsset: {fileID: 0}
  m_GameObject: {fileID: 0}
  m_Enabled: 1
  m_EditorHideFlags: 0
  m_Script: {fileID: 11500000, guid: 827e0ca428c9a5e4aaa8b54b5e4f7d3b, type: 3}
  m_Name: Space Chickens _ New Token
  m_EditorClassIdentifier: 
  UpdatedFromServer: 1
  UpdatedOn: -8585592073369770421
  contract: {fileID: 0}
  data:
    name: New Token
    description: 
    currentSupply: 0
    fungible: 0
    burnable: 0
    externalUrl: 
    image: 
    animationUrls: []
    attributes: []
    contractAddress: 
    id: 4
    confirmed: 1
    rawData: 
